<svg xmlns="http://www.w3.org/2000/svg" width="25" height="20" viewBox="0 0 25 20">
    <path fill="#ffffff" fill-rule="evenodd" d="M8.54 18.805l.143.143L24.335 3.296 21.726.688 8.303 14.11l-5.36-5.36-2.608 2.608 7.825 7.826.38-.38z"/>
</svg>
